{
    "/js/app.js": "/js/app.js",
    "/js/vue.js": "/js/vue.js",
    "/js/bundle.js": "/js/bundle.js",
    "/css/app.css": "/css/app.css",
    "/css/quill.css": "/css/quill.css",
    "/videos/background-01.mp4": "/videos/background-01.mp4",
    "/videos/background-02.mp4": "/videos/background-02.mp4",
    "/videos/background-03.mp4": "/videos/background-03.mp4",
    "/videos/background-04.mp4": "/videos/background-04.mp4",
    "/docs/erd.html": "/docs/erd.html",
    "/pdfs/parknews.pdf": "/pdfs/parknews.pdf",
    "/js/chart.js": "/js/chart.js"
}
